04_arithmetics_and_pipelining/dump.vcd
$date
	Wed Apr 23 21:57:42 2025
$end
$version
	Icarus Verilog
$end
$timescale
	1s
$end
$scope module testbench $end
$scope module tb_1 $end
$var event 1 ! finish $end
$var event 1 " all_combination_done $end
$var wire 4 # up_vlds [3:0] $end
$var wire 64 $ up_data [63:0] $end
$var wire 1 % down_vld $end
$var wire 16 & down_data [15:0] $end
$var parameter 32 ' data_ptr_width $end
$var parameter 32 ( n_inputs $end
$var parameter 32 ) width $end
$var reg 1 * clk $end
$var reg 16 + current_data [15:0] $end
$var reg 2 , data_ptr [1:0] $end
$var reg 15 - delays [14:0] $end
$var reg 1 . is_test_fail $end
$var reg 16 / res [15:0] $end
$var reg 16 0 res_expected [15:0] $end
$var reg 4 1 ring_one [3:0] $end
$var reg 1 2 rst $end
$var reg 1 3 running $end
$scope begin input_generator[0] $end
$var parameter 2 4 i $end
$scope module r_delay $end
$var event 1 5 delay_done $end
$var wire 1 * clk $end
$var wire 16 6 data_in [15:0] $end
$var wire 2 7 out_delay [1:0] $end
$var wire 1 2 rst $end
$var wire 1 8 vld_in $end
$var parameter 32 9 delay_width $end
$var parameter 32 : n_inputs $end
$var parameter 32 ; width $end
$var reg 16 < data_lock [15:0] $end
$var reg 16 = data_out [15:0] $end
$var reg 2 > delay [1:0] $end
$var reg 1 ? ready $end
$var reg 1 @ vld_out $end
$upscope $end
$upscope $end
$scope begin input_generator[1] $end
$var parameter 2 A i $end
$scope module r_delay $end
$var event 1 B delay_done $end
$var wire 1 * clk $end
$var wire 16 C data_in [15:0] $end
$var wire 2 D out_delay [1:0] $end
$var wire 1 2 rst $end
$var wire 1 E vld_in $end
$var parameter 32 F delay_width $end
$var parameter 32 G n_inputs $end
$var parameter 32 H width $end
$var reg 16 I data_lock [15:0] $end
$var reg 16 J data_out [15:0] $end
$var reg 2 K delay [1:0] $end
$var reg 1 L ready $end
$var reg 1 M vld_out $end
$upscope $end
$upscope $end
$scope begin input_generator[2] $end
$var parameter 3 N i $end
$scope module r_delay $end
$var event 1 O delay_done $end
$var wire 1 * clk $end
$var wire 16 P data_in [15:0] $end
$var wire 2 Q out_delay [1:0] $end
$var wire 1 2 rst $end
$var wire 1 R vld_in $end
$var parameter 32 S delay_width $end
$var parameter 32 T n_inputs $end
$var parameter 32 U width $end
$var reg 16 V data_lock [15:0] $end
$var reg 16 W data_out [15:0] $end
$var reg 2 X delay [1:0] $end
$var reg 1 Y ready $end
$var reg 1 Z vld_out $end
$upscope $end
$upscope $end
$scope begin input_generator[3] $end
$var parameter 3 [ i $end
$scope module r_delay $end
$var event 1 \ delay_done $end
$var wire 1 * clk $end
$var wire 16 ] data_in [15:0] $end
$var wire 2 ^ out_delay [1:0] $end
$var wire 1 2 rst $end
$var wire 1 _ vld_in $end
$var parameter 32 ` delay_width $end
$var parameter 32 a n_inputs $end
$var parameter 32 b width $end
$var reg 16 c data_lock [15:0] $end
$var reg 16 d data_out [15:0] $end
$var reg 2 e delay [1:0] $end
$var reg 1 f ready $end
$var reg 1 g vld_out $end
$upscope $end
$upscope $end
$scope module DUT $end
$var wire 4 h buffer_vld_next_a [3:0] $end
$var wire 1 * clk $end
$var wire 16 i down_data [15:0] $end
$var wire 1 2 rst $end
$var wire 64 j up_data [63:0] $end
$var wire 4 k up_vlds [3:0] $end
$var wire 1 % down_vld $end
$var parameter 32 l n_inputs $end
$var parameter 32 m width $end
$var reg 4 n buffer_vld_a [3:0] $end
$var reg 4 o buffer_vld_b [3:0] $end
$var reg 2 p counter [1:0] $end
$scope begin $ivl_for_loop0 $end
$var integer 32 q i [31:0] $end
$upscope $end
$upscope $end
$scope begin $ivl_for_loop1 $end
$var integer 32 r i [31:0] $end
$upscope $end
$scope begin $ivl_for_loop2 $end
$var integer 32 s l [31:0] $end
$upscope $end
$scope task reset $end
$upscope $end
$upscope $end
$scope module tb_2 $end
$var wire 1 t down_vld $end
$var wire 8 u down_data [7:0] $end
$var parameter 32 v TIMEOUT $end
$var parameter 32 w latency_width $end
$var parameter 4 x max_latency $end
$var parameter 4 y max_ptr $end
$var parameter 32 z n_inputs $end
$var parameter 32 { ptr_width $end
$var parameter 32 | width $end
$var reg 1 } clk $end
$var reg 8 ~ down_data_expected [7:0] $end
$var reg 10 !" pending [9:0] $end
$var reg 80 "" pending_data [79:0] $end
$var reg 80 #" pending_data_for_log [79:0] $end
$var reg 10 $" pending_for_log [9:0] $end
$var reg 40 %" pending_latency [39:0] $end
$var reg 4 &" ptr [3:0] $end
$var reg 1 '" rst $end
$var reg 80 (" up_data [79:0] $end
$var reg 10 )" up_vlds [9:0] $end
$var reg 32 *" counter [31:0] $end
$var reg 32 +" cycle [31:0] $end
$var reg 1 ," was_reset $end
$scope module i_put_in_order $end
$var wire 10 -" buffer_vld_next_a [9:0] $end
$var wire 1 } clk $end
$var wire 8 ." down_data [7:0] $end
$var wire 1 '" rst $end
$var wire 80 /" up_data [79:0] $end
$var wire 10 0" up_vlds [9:0] $end
$var wire 1 t down_vld $end
$var parameter 32 1" n_inputs $end
$var parameter 32 2" width $end
$var reg 10 3" buffer_vld_a [9:0] $end
$var reg 10 4" buffer_vld_b [9:0] $end
$var reg 4 5" counter [3:0] $end
$scope begin $ivl_for_loop0 $end
$var integer 32 6" i [31:0] $end
$upscope $end
$upscope $end
$scope begin $ivl_for_loop6 $end
$var integer 32 7" i [31:0] $end
$upscope $end
$scope begin $ivl_for_loop7 $end
$var integer 32 8" i [31:0] $end
$upscope $end
$scope task receive $end
$upscope $end
$scope task run $end
$upscope $end
$scope task send $end
$var integer 32 9" n_reps [31:0] $end
$scope begin $ivl_for_loop3 $end
$var integer 32 :" rep [31:0] $end
$scope begin $ivl_for_loop4 $end
$var integer 32 ;" i [31:0] $end
$upscope $end
$scope begin $ivl_for_loop5 $end
$var integer 32 <" i [31:0] $end
$upscope $end
$upscope $end
$upscope $end
$upscope $end
$upscope $end
$enddefinitions $end
$comment Show the parameter values. $end
$dumpall
b1000 2"
b1010 1"
b1000 |
b100 {
b1010 z
b1001 y
b1010 x
b100 w
b10011100010000 v
b10000 m
b100 l
b10000 b
b100 a
b10 `
b11 [
b10000 U
b100 T
b10 S
b10 N
b10000 H
b100 G
b10 F
b1 A
b10000 ;
b100 :
b10 9
b0 4
b10000 )
b100 (
b10 '
$end
#0
$dumpvars
b0 <"
b0 ;"
b0 :"
b0 9"
b0 8"
b0 7"
b0 6"
bx 5"
bx 4"
bx 3"
bx 0"
bx /"
bx ."
bx -"
0,"
b0 +"
b0 *"
bx )"
bx ("
x'"
bx &"
bx %"
bx $"
bx #"
bx ""
bx !"
bx ~
0}
bx u
xt
b0 s
b0 r
b100 q
bx p
bx o
bx n
b0 k
b0 j
bx i
bx h
0g
1f
b0 e
b0 d
b0 c
0_
b0 ^
bx ]
1\
0Z
1Y
b0 X
b0 W
b0 V
0R
b0 Q
bx P
1O
0M
1L
b0 K
b0 J
b0 I
0E
b0 D
bx C
1B
0@
1?
b0 >
b0 =
b0 <
08
b0 7
bx 6
15
03
x2
b0 1
bx 0
bx /
x.
b0 -
b0 ,
bx +
0*
bx &
x%
b0 $
b0 #
1"
1!
$end
#500
b1010 6"
b1 +"
1}
#1000
0}
#1500
1'"
b1010 6"
b10 +"
1}
#2000
0}
#2500
b0 -"
1,"
b0 4"
0t
b0 3"
b0 5"
b1010 6"
b11 +"
1}
#3000
0}
#3500
bx00000000 #"
b1 $"
b0 )"
b0 0"
b1010 <"
bx0010 %"
bx00000000 ""
b1 *"
b1010 ;"
b1 !"
b1 &"
b1111101000 9"
0'"
b1010 6"
b100 +"
b1010 8"
b1010 7"
1}
#4000
0}
#4500
bx0000000100000000 #"
b11 $"
b1010 <"
b10 &"
bx0000000100000000 ""
b10 *"
b11 !"
bx00010001 %"
b1010 ;"
b1010 6"
b101 +"
b1010 8"
b1010 7"
b1 :"
1}
#5000
0}
#5500
bx000000100000000100000000 #"
b100 $"
bx0000000100000000 ("
bx0000000100000000 /"
b11 )"
b11 0"
b1010 <"
b11 &"
bx000000100000000100000000 ""
b11 *"
b100 !"
bx011100000000 %"
b1010 ;"
b1010 6"
b110 +"
b1010 8"
b1010 7"
b10 :"
1}
#6000
0}
#6500
b10 -"
bx00000011000000100000000100000000 #"
bx00000011xxxxxxxxxxxxxxxxxxxxxxxx ("
bx00000011xxxxxxxxxxxxxxxxxxxxxxxx /"
b1000 )"
b1000 0"
b0 u
b0 ."
1t
b11 3"
b1010 <"
b100 &"
bx00000011000000100000000100000000 ""
b100 *"
b100 !"
bx0000011000000000 %"
b1010 ;"
b1010 6"
b111 +"
b1010 8"
b1010 7"
b11 :"
1}
#7000
0}
#7500
b1000 -"
bx0000010000000011000000100000000100000000 #"
b10100 $"
bx ("
bx /"
b0 )"
b0 0"
b1010 3"
b1 u
b1 ."
b1 5"
b1010 <"
b101 &"
bx0000010000000011000000100000000100000000 ""
b101 *"
b10100 !"
bx01010000010100000000 %"
b1010 ;"
b1010 6"
b1000 +"
b1010 8"
b1010 7"
b0 ~
b100 :"
1}
#8000
0}
#8500
bx000001010000010000000011000000100000000100000000 #"
b110100 $"
b1000 3"
0t
bx u
bx ."
b10 5"
b1010 <"
b110 &"
bx000001010000010000000011000000100000000100000000 ""
b110 *"
b110100 !"
bx011001000000010000000000 %"
b1010 ;"
b1010 6"
b1001 +"
b1010 8"
b1010 7"
b1 ~
b101 :"
1}
#9000
0}
#9500
b1010 <"
bx010100110000001100000000 %"
b1010 ;"
b1010 6"
b1010 +"
b1010 8"
b1010 7"
b110 :"
1}
#10000
0}
#10500
bx00000110000001010000010000000011000000100000000100000000 #"
b1110100 $"
b1010 <"
b111 &"
bx00000110000001010000010000000011000000100000000100000000 ""
b111 *"
b1110100 !"
bx1001010000100000001000000000 %"
b1010 ;"
b1010 6"
b1011 +"
b1010 8"
b1010 7"
b111 :"
1}
#11000
0}
#11500
bx0000011100000110000001010000010000000011000000100000000100000000 #"
b11110100 $"
b1010 <"
b1000 &"
bx0000011100000110000001010000010000000011000000100000000100000000 ""
b1000 *"
b11110100 !"
bx00111000001100010000000100000000 %"
b1010 ;"
b1010 6"
b1100 +"
b1010 8"
b1010 7"
b1000 :"
1}
#12000
0}
#12500
bx000010000000011100000110000001010000010000000011000000100000000100000000 #"
b111100000 $"
bx00000100xxxxxxxx00000010xxxxxxxxxxxxxxxx ("
bx00000100xxxxxxxx00000010xxxxxxxxxxxxxxxx /"
b10100 )"
b10100 0"
b1010 <"
b1001 &"
bx000010000000011100000110000001010000010000000011000000100000000100000000 ""
b1001 *"
b111100000 !"
bx100100100111001000000000000000000000 %"
b1010 ;"
b1010 6"
b1101 +"
b1010 8"
b1010 7"
b1001 :"
1}
#13000
0}
#13500
b11000 -"
b1001000010000000011100000110000001010000010000000011000000100000000100000000 #"
b1001xxxxxxxxxxxxxxxxxxxxxxxxxxxxxxxxxxxxxxxxxxxxxxxxxxxxxxxxxxxxxxxxxxxxxxxx ("
b1001xxxxxxxxxxxxxxxxxxxxxxxxxxxxxxxxxxxxxxxxxxxxxxxxxxxxxxxxxxxxxxxxxxxxxxxx /"
b1000000000 )"
b1000000000 0"
b10 u
b10 ."
1t
b11100 3"
b1010 <"
b0 &"
b1001000010000000011100000110000001010000010000000011000000100000000100000000 ""
b1010 *"
b111100000 !"
b100000010110000100000000000000000000 %"
b1010 ;"
b1010 6"
b1110 +"
b1010 8"
b1010 7"
b1010 :"
1}
#14000
0}
#14500
b1000010000 -"
b1001000010000000011100000110000001010000010000000011000000100000000100001010 #"
b101000001 $"
bx00000111xxxxxxxx00000101xxxxxxxxxxxxxxxxxxxxxxxxxxxxxxxxxxxxxxxx ("
bx00000111xxxxxxxx00000101xxxxxxxxxxxxxxxxxxxxxxxxxxxxxxxxxxxxxxxx /"
b10100000 )"
b10100000 0"
b1000011000 3"
b11 u
b11 ."
b11 5"
b1010 <"
b1 &"
b1001000010000000011100000110000001010000010000000011000000100000000100001010 ""
b1011 *"
b101000001 !"
b11100000101000000000000000000001001 %"
b1010 ;"
b1010 6"
b1111 +"
b1010 8"
b1010 7"
b10 ~
b1011 :"
1}
#15000
0}
#15500
b1010100000 -"
b1001000010000000011100000110000001010000010000000011000000100000101100001010 #"
b101000011 $"
bx ("
bx /"
b0 )"
b0 0"
b1010110000 3"
b100 u
b100 ."
b100 5"
b1010 <"
b10 &"
b1001000010000000011100000110000001010000010000000011000000100000101100001010 ""
b1100 *"
b101000011 !"
b11000000100000000000000000001001000 %"
b1010 ;"
b1010 6"
b10000 +"
b1010 8"
b1010 7"
b11 ~
b1100 :"
1}
#16000
0}
#16500
b1010000000 -"
b1001000010000000011100000110000001010000010000000011000011000000101100001010 #"
b101000111 $"
b1010100000 3"
b101 u
b101 ."
b101 5"
b1010 <"
b11 &"
b1001000010000000011100000110000001010000010000000011000011000000101100001010 ""
b1101 *"
b101000111 !"
b10100000011000000000000011000110111 %"
b1010 ;"
b1010 6"
b10001 +"
b1010 8"
b1010 7"
b100 ~
b1101 :"
1}
#17000
0}
#17500
b1001000010000000011100000110000001010000010000001101000011000000101100001010 #"
bx00001101xxxxxxxxxxxxxxxxxxxxxxxx ("
bx00001101xxxxxxxxxxxxxxxxxxxxxxxx /"
b1000 )"
b1000 0"
b1010000000 3"
0t
bx u
bx ."
b110 5"
b1010 <"
b100 &"
b1001000010000000011100000110000001010000010000001101000011000000101100001010 ""
b1110 *"
b101000111 !"
b10000000010000000000000010100100110 %"
b1010 ;"
b1010 6"
b10010 +"
b1010 8"
b1010 7"
b101 ~
b1110 :"
1}
#18000
0}
#18500
b1010001000 -"
b1001000010000000011100000110000001010000111000001101000011000000101100001010 #"
b101010111 $"
bx ("
bx /"
b0 )"
b0 0"
b1010001000 3"
b1010 <"
b101 &"
b1001000010000000011100000110000001010000111000001101000011000000101100001010 ""
b1111 *"
b101010111 !"
b1100000001000000010000010000010101 %"
b1010 ;"
b1010 6"
b10011 +"
b1010 8"
b1010 7"
b1111 :"
1}
#19000
0}
#19500
b1001000010000000011100000110000011110000111000001101000011000000101100001010 #"
b100100101 $"
bx00000110xxxxxxxx00001110xxxxxxxxxxxxxxxx00001011xxxxxxxx ("
bx00000110xxxxxxxx00001110xxxxxxxxxxxxxxxx00001011xxxxxxxx /"
b1010010 )"
b1010010 0"
b1010 <"
b110 &"
b1001000010000000011100000110000011110000111000001101000011000000101100001010 ""
b10000 *"
b100100101 !"
b1000000000001000000000001100000100 %"
b1010 ;"
b1010 6"
b10100 +"
b1010 8"
b1010 7"
b10000 :"
1}
#20000
0}
#20500
b1010011010 -"
b1001000010000000011100010000000011110000111000001101000011000000101100001010 #"
b101100101 $"
bx ("
bx /"
b0 )"
b0 0"
b110 u
b110 ."
1t
b1011011010 3"
b1010 <"
b111 &"
b1001000010000000011100010000000011110000111000001101000011000000101100001010 ""
b10001 *"
b101100101 !"
b100001000000100000000001000000011 %"
b1010 ;"
b1010 6"
b10101 +"
b1010 8"
b1010 7"
b10001 :"
1}
#21000
0}
#21500
b1000011010 -"
b1001000010000001000100010000000011110000111000001101000011000000101100001010 #"
b11000101 $"
bx00001000xxxxxxxxxxxxxxxx00001111xxxxxxxxxxxxxxxxxxxxxxxxxxxxxxxxxxxxxxxx ("
bx00001000xxxxxxxxxxxxxxxx00001111xxxxxxxxxxxxxxxxxxxxxxxxxxxxxxxxxxxxxxxx /"
b100100000 )"
b100100000 0"
b1010011010 3"
b111 u
b111 ."
b111 5"
b1010 <"
b1000 &"
b1001000010000001000100010000000011110000111000001101000011000000101100001010 ""
b10010 *"
b11000101 !"
b100111000000000000000100000010 %"
b1010 ;"
b1010 6"
b10110 +"
b1010 8"
b1010 7"
b110 ~
b10010 :"
1}
#22000
0}
#22500
b1000111010 -"
b1001000100100001000100010000000011110000111000001101000011000000101100001010 #"
b11000001 $"
bx00010010xxxxxxxxxxxxxxxxxxxxxxxxxxxxxxxxxxxxxxxx00001100xxxxxxxxxxxxxxxx ("
bx00010010xxxxxxxxxxxxxxxxxxxxxxxxxxxxxxxxxxxxxxxx00001100xxxxxxxxxxxxxxxx /"
b100000100 )"
b100000100 0"
b1100111010 3"
1t
b1000 u
b1000 ."
b1000 5"
b1010 <"
b1001 &"
b1001000100100001000100010000000011110000111000001101000011000000101100001010 ""
b10011 *"
b11000001 !"
b10110000000000000000000000001 %"
b1010 ;"
b1010 6"
b10111 +"
b1010 8"
b1010 7"
b111 ~
b10011 :"
1}
#23000
0}
#23500
b100111110 -"
b10011000100100001000100010000000011110000111000001101000011000000101100001010 #"
b1001000000 $"
bx00010001xxxxxxxxxxxxxxxxxxxxxxxxxxxxxxxxxxxxxxxxxxxxxxxx00001010 ("
bx00010001xxxxxxxxxxxxxxxxxxxxxxxxxxxxxxxxxxxxxxxxxxxxxxxx00001010 /"
b10000001 )"
b10000001 0"
b1100111110 3"
b1001 u
b1001 ."
b1001 5"
b1010 <"
b0 &"
b10011000100100001000100010000000011110000111000001101000011000000101100001010 ""
b10100 *"
b1001000000 !"
b111000000000101000000000000000000000000 %"
b1010 ;"
b1010 6"
b11000 +"
b1010 8"
b1010 7"
b1000 ~
b10100 :"
1}
#24000
0}
#24500
b110111110 -"
b10011000100100001000100010000000011110000111000001101000011000000101100010100 #"
bx00010100 ("
bx00010100 /"
b1 )"
b1 0"
b110111111 3"
1t
b1010 u
b1010 ."
b0 5"
b1010 <"
b1 &"
b10011000100100001000100010000000011110000111000001101000011000000101100010100 ""
b10101 *"
b1001000000 !"
b110000000000100000000000000000000000000 %"
b1010 ;"
b1010 6"
b11001 +"
b1010 8"
b1010 7"
b1001 ~
b10101 :"
1}
#25000
0}
#25500
b110111101 -"
b10011000100100001000100010000000011110000111000001101000011000001010100010100 #"
b1001000010 $"
bx ("
bx /"
b0 )"
b0 0"
b1011 u
b1011 ."
b1 5"
b1010 <"
b10 &"
b10011000100100001000100010000000011110000111000001101000011000001010100010100 ""
b10110 *"
b1001000010 !"
b101000000000011000000000000000001010000 %"
b1010 ;"
b1010 6"
b11010 +"
b1010 8"
b1010 7"
b1010 ~
b10110 :"
1}
#26000
0}
#26500
b110111001 -"
b10011000100100001000100010000000011110000111000001101000101100001010100010100 #"
b1001000110 $"
b110111101 3"
b1100 u
b1100 ."
b10 5"
b1010 <"
b11 &"
b10011000100100001000100010000000011110000111000001101000101100001010100010100 ""
b10111 *"
b1001000110 !"
b100000000000010000000000000010101000000 %"
b1010 ;"
b1010 6"
b11011 +"
b1010 8"
b1010 7"
b1011 ~
b10111 :"
1}
#27000
0}
#27500
b110110001 -"
b10011000100100001000100010000000011110000111000010111000101100001010100010100 #"
b1001001110 $"
b110111001 3"
b1101 u
b1101 ."
b11 5"
b1010 <"
b100 &"
b10011000100100001000100010000000011110000111000010111000101100001010100010100 ""
b11000 *"
b1001001110 !"
b11000000000001000000000011010000110000 %"
b1010 ;"
b1010 6"
b11100 +"
b1010 8"
b1010 7"
b1100 ~
b11000 :"
1}
#28000
0}
#28500
b110100001 -"
b10011000100100001000100010000000011110001100000010111000101100001010100010100 #"
b1000011110 $"
bx00010000xxxxxxxxxxxxxxxxxxxxxxxxxxxxxxxxxxxxxxxxxxxxxxxx ("
bx00010000xxxxxxxxxxxxxxxxxxxxxxxxxxxxxxxxxxxxxxxxxxxxxxxx /"
b1000000 )"
b1000000 0"
b110110001 3"
b1110 u
b1110 ."
b100 5"
b1010 <"
b101 &"
b10011000100100001000100010000000011110001100000010111000101100001010100010100 ""
b11001 *"
b1000011110 !"
b10000000000000000010010010001100100000 %"
b1010 ;"
b1010 6"
b11101 +"
b1010 8"
b1010 7"
b1101 ~
b11001 :"
1}
#29000
0}
#29500
b111000001 -"
b10011000100100001000100010000000110010001100000010111000101100001010100010100 #"
b1000111110 $"
bx ("
bx /"
b0 )"
b0 0"
b111100001 3"
b1111 u
b1111 ."
b101 5"
b1010 <"
b110 &"
b10011000100100001000100010000000110010001100000010111000101100001010100010100 ""
b11010 *"
b1000111110 !"
b1000000000000011010000001001000010000 %"
b1010 ;"
b1010 6"
b11110 +"
b1010 8"
b1010 7"
b1110 ~
b11010 :"
1}
#30000
0}
#30500
b110000001 -"
b10011000100100001000100011010000110010001100000010111000101100001010100010100 #"
b1110100 $"
b10011xxxxxxxxxxxxxxxxxxxxxxxxxxxxxxxxxxxxxxxx00010111xxxxxxxx00010101xxxxxxxx ("
b10011xxxxxxxxxxxxxxxxxxxxxxxxxxxxxxxxxxxxxxxx00010111xxxxxxxx00010101xxxxxxxx /"
b1000001010 )"
b1000001010 0"
b111000001 3"
b10000 u
b10000 ."
b110 5"
b1010 <"
b111 &"
b10011000100100001000100011010000110010001100000010111000101100001010100010100 ""
b11011 *"
b1110100 !"
b111010101110000000100000000 %"
b1010 ;"
b1010 6"
b11111 +"
b1010 8"
b1010 7"
b1111 ~
b11011 :"
1}
#31000
0}
#31500
b1100001011 -"
b10011000100100001101100011010000110010001100000010111000101100001010100010100 #"
b11110000 $"
bx00010110xxxxxxxxxxxxxxxx ("
bx00010110xxxxxxxxxxxxxxxx /"
b100 )"
b100 0"
b1110001011 3"
b10001 u
b10001 ."
b111 5"
b1010 <"
b1000 &"
b10011000100100001101100011010000110010001100000010111000101100001010100010100 ""
b11100 *"
b11110000 !"
b10010110010001100000000000000000 %"
b1010 ;"
b1010 6"
b100000 +"
b1010 8"
b1010 7"
b10000 ~
b11100 :"
1}
#32000
0}
#32500
b1000001111 -"
bx ("
bx /"
b0 )"
b0 0"
b1100001111 3"
b10010 u
b10010 ."
b1000 5"
b1010 <"
b10000101001101010000000000000000 %"
b1010 ;"
b1010 6"
b100001 +"
b1010 8"
b1010 7"
b10001 ~
b11101 :"
1}
#33000
0}
#33500
b1111 -"
b1000001111 3"
b10011 u
b10011 ."
b1001 5"
b1010 <"
b1110100001001000000000000000000 %"
b1010 ;"
b1010 6"
b100010 +"
b1010 8"
b1010 7"
b10010 ~
b11110 :"
1}
#34000
0}
#34500
b1110 -"
b1111 3"
b10100 u
b10100 ."
b0 5"
b1010 <"
b1100011000100110000000000000000 %"
b1010 ;"
b1010 6"
b100011 +"
b1010 8"
b1010 7"
b10011 ~
b11111 :"
1}
#35000
0}
#35500
b1100 -"
b10011000111000001101100011010000110010001100000010111000101100001010100010100 #"
b111010000 $"
bx00011001xxxxxxxxxxxxxxxxxxxxxxxxxxxxxxxxxxxxxxxx ("
bx00011001xxxxxxxxxxxxxxxxxxxxxxxxxxxxxxxxxxxxxxxx /"
b100000 )"
b100000 0"
b1110 3"
b10101 u
b10101 ."
b1 5"
b1010 <"
b1001 &"
b10011000111000001101100011010000110010001100000010111000101100001010100010100 ""
b11101 *"
b111010000 !"
b10101010010000000100000000000000000 %"
b1010 ;"
b1010 6"
b100100 +"
b1010 8"
b1010 7"
b10100 ~
b100000 :"
1}
#36000
0}
#36500
b101000 -"
b11101000111000001101100011010000110010001100000010111000101100001010100010100 #"
b1111010000 $"
bx ("
bx /"
b0 )"
b0 0"
b101100 3"
b10110 u
b10110 ."
b10 5"
b1010 <"
b0 &"
b11101000111000001101100011010000110010001100000010111000101100001010100010100 ""
b11110 *"
b1111010000 !"
b10010001000001000000010000000000000000 %"
b1010 ;"
b1010 6"
b100101 +"
b1010 8"
b1010 7"
b10101 ~
b100001 :"
1}
#37000
0}
#37500
b100000 -"
b11101000111000001101100011010000110010001100000010111000101100001010101001111 #"
b1110000001 $"
bx00011010xxxxxxxx00011000xxxxxxxxxxxxxxxxxxxxxxxxxxxxxxxx ("
bx00011010xxxxxxxx00011000xxxxxxxxxxxxxxxxxxxxxxxxxxxxxxxx /"
b1010000 )"
b1010000 0"
b101000 3"
b10111 u
b10111 ."
b11 5"
b1010 <"
b1 &"
b11101000111000001101100011010000110010001100000010111000101100001010101001111 ""
b1110000001 !"
b1001100110000000000000000000000000001 %"
b1010 ;"
b1010 6"
b100110 +"
b1010 8"
b1010 7"
b10110 ~
b100010 :"
1}
#38000
0}
#38500
b1100000 -"
b11101000111000001101100011010000110010001100000010111000101100111111001001111 #"
b110000010 $"
b11101xxxxxxxxxxxxxxxxxxxxxxxxxxxxxxxxxxxxxxxxxxxxxxxxxxxxxxxxxxxxxxxx01001111 ("
b11101xxxxxxxxxxxxxxxxxxxxxxxxxxxxxxxxxxxxxxxxxxxxxxxxxxxxxxxxxxxxxxxx01001111 /"
b1000000001 )"
b1000000001 0"
b1110000 3"
1t
b11000 u
b11000 ."
b100 5"
b1010 <"
b10 &"
b11101000111000001101100011010000110010001100000010111000101100111111001001111 ""
b110000010 !"
b1000100000000000000000000001010000 %"
b1010 ;"
b1010 6"
b100111 +"
b1010 8"
b1010 7"
b10111 ~
b100011 :"
1}
#39000
0}
#39500
b1001000001 -"
bx ("
bx /"
b0 )"
b0 0"
b1001100001 3"
b11001 u
b11001 ."
b101 5"
b1010 <"
b100010000000000000000000001000000 %"
b1010 ;"
b1010 6"
b101000 +"
b1010 8"
b1010 7"
b11000 ~
b100100 :"
1}
#40000
0}
#40500
b1000000001 -"
b10 $"
bx0001110000011011xxxxxxxxxxxxxxxxxxxxxxxxxxxxxxxxxxxxxxxxxxxxxxxxxxxxxxxx ("
bx0001110000011011xxxxxxxxxxxxxxxxxxxxxxxxxxxxxxxxxxxxxxxxxxxxxxxxxxxxxxxx /"
b110000000 )"
b110000000 0"
b1001000001 3"
b11010 u
b11010 ."
b110 5"
b10 !"
b1010 <"
b110000 %"
b1010 ;"
b1010 6"
b101001 +"
b1010 8"
b1010 7"
b11001 ~
b100101 :"
1}
#41000
0}
#41500
b1100000001 -"
b11101000111000001101100011010000110010001100000010111010011000111111001001111 #"
b110 $"
bx ("
bx /"
b0 )"
b0 0"
b1110000001 3"
1t
b11011 u
b11011 ."
b111 5"
b1010 <"
b11 &"
b11101000111000001101100011010000110010001100000010111010011000111111001001111 ""
b110 !"
b100000100000 %"
b1010 ;"
b1010 6"
b101010 +"
b1010 8"
b1010 7"
b11010 ~
b100110 :"
1}
#42000
0}
#42500
b1000000001 -"
b11101000111000001101100011010000110010001100011111000010011000111111001001111 #"
b1110 $"
b1100000001 3"
b11100 u
b11100 ."
b1000 5"
b1010 <"
b100 &"
b11101000111000001101100011010000110010001100011111000010011000111111001001111 ""
b1110 !"
b11011100010000 %"
b1010 ;"
b1010 6"
b101011 +"
b1010 8"
b1010 7"
b11011 ~
b100111 :"
1}
#43000
0}
#43500
b1 -"
b11101000111000001101100011010000110010101110011111000010011000111111001001111 #"
b11100 $"
bx01111110xxxxxxxx ("
bx01111110xxxxxxxx /"
b10 )"
b10 0"
b1000000001 3"
b11101 u
b11101 ."
b1001 5"
b1010 <"
b101 &"
b11101000111000001101100011010000110010101110011111000010011000111111001001111 ""
b11100 !"
b10010011000000000 %"
b1010 ;"
b1010 6"
b101100 +"
b1010 8"
b1010 7"
b11100 ~
b101000 :"
1}
#44000
0}
#44500
b10 -"
b11101000111000001101100011010010010010101110011111000010011000111111001001111 #"
b101100 $"
bx01011100xxxxxxxxxxxxxxxxxxxxxxxxxxxxxxxx ("
bx01011100xxxxxxxxxxxxxxxxxxxxxxxxxxxxxxxx /"
b10000 )"
b10000 0"
b11 3"
b1001111 u
b1001111 ."
b0 5"
b1010 <"
b110 &"
b11101000111000001101100011010010010010101110011111000010011000111111001001111 ""
b101100 !"
b10000000001010100000000 %"
b1010 ;"
b1010 6"
b101101 +"
b1010 8"
b1010 7"
b11101 ~
b101001 :"
1}
#45000
0}
#45500
b10000 -"
b11101000111000001101101010001010010010101110011111000010011000111111001001111 #"
b1100100 $"
bx11111000xxxxxxxxxxxxxxxxxxxxxxxx ("
bx11111000xxxxxxxxxxxxxxxxxxxxxxxx /"
b1000 )"
b1000 0"
b10010 3"
b1111110 u
b1111110 ."
b1 5"
b1010 <"
b111 &"
b11101000111000001101101010001010010010101110011111000010011000111111001001111 ""
b1100100 !"
b111001100000000010000000000 %"
b1010 ;"
b1010 6"
b101110 +"
b1010 8"
b1010 7"
b1001111 ~
b101010 :"
1}
#46000
0}
#46500
b11000 -"
b11101000111001100001001010001010010010101110011111000010011000111111001001111 #"
b11100100 $"
bx ("
bx /"
b0 )"
b0 0"
b11000 3"
0t
b10110 u
b10110 ."
b10 5"
b1010 <"
b1000 &"
b11101000111001100001001010001010010010101110011111000010011000111111001001111 ""
b11100100 !"
b10000110001000000000001100000000 %"
b1010 ;"
b1010 6"
b101111 +"
b1010 8"
b1010 7"
b1111110 ~
b101011 :"
1}
#47000
0}
#47500
b11101001111011100001001010001010010010101110011111000010011000111111001001111 #"
b111100100 $"
b1010 <"
b1001 &"
b11101001111011100001001010001010010010101110011111000010011000111111001001111 ""
b111100100 !"
b10101110101000100000000001000000000 %"
b1010 ;"
b1010 6"
b110000 +"
b1010 8"
b1010 7"
b101100 :"
1}
#48000
0}
#48500
b1101101001111011100001001010001010010010101110011111000010011000111111001001111 #"
b1111000100 $"
bx01001001xxxxxxxxxxxxxxxxxxxxxxxxxxxxxxxxxxxxxxxx ("
bx01001001xxxxxxxxxxxxxxxxxxxxxxxxxxxxxxxxxxxxxxxx /"
b100000 )"
b100000 0"
b1010 <"
b0 &"
b1101101001111011100001001010001010010010101110011111000010011000111111001001111 ""
b1111000100 !"
b110010001100100000000000000000100000000 %"
b1010 ;"
b1010 6"
b110001 +"
b1010 8"
b1010 7"
b101101 :"
1}
#49000
0}
